Tidymodels: Machine Learning the Tidy Way
…
Turns out tax is above the default (.9) and will get discarded, whereas all other predictors will be directed to scaling and centering. juice can reveal this by extracting the pre-processed data.

rec_obj %>%
  prep(train_tbl) %>%
  juice()
## # A tibble: 405 x 13
##      crim      zn  indus chas     nox     rm     age    dis    rad ptratio     b
##     <dbl>   <dbl>  <dbl> <fct>  <dbl>  <dbl>   <dbl>  <dbl>  <dbl>   <dbl> <dbl>
##  1 -0.408  0.249  -1.25  0     -0.105  0.392 -0.0623 0.0998 -0.963  -1.44  0.432
##  2 -0.406 -0.514  -0.547 0     -0.702  0.171  0.420  0.517  -0.846  -0.269 0.432
##  3 -0.406 -0.514  -1.26  0     -0.797  0.184 -0.291  1.04   -0.729   0.153 0.402
##  4 -0.399  0.0157 -0.430 0     -0.226 -0.415 -0.0130 0.800  -0.495  -1.49  0.418
##  5 -0.392  0.0157 -0.430 0     -0.226 -0.186  1.03   0.986  -0.495  -1.49  0.432
##  6 -0.384  0.0157 -0.430 0     -0.226 -0.960  1.16   1.05   -0.495  -1.49  0.321
##  7 -0.389  0.0157 -0.430 0     -0.226 -0.426  0.666  1.29   -0.495  -1.49  0.322
##  8 -0.382  0.0157 -0.430 0     -0.226  0.108  0.962  1.17   -0.495  -1.49  0.384
##  9 -0.395  0.0157 -0.430 0     -0.226 -0.419  0.561  1.12   -0.495  -1.49  0.432
## 10 -0.398  0.0157 -0.430 0     -0.226 -0.591 -0.984  0.748  -0.495  -1.49  0.363
## # … with 395 more rows, and 2 more variables: lstat <dbl>, medv <dbl>
…
This is absolutely right. Since we supplied the split object when we fitted the workflow, metrics will be evaluated on the test set only. Metrics and predictions are now close at hand.

rf_fit %>% 
  collect_metrics()
## # A tibble: 2 x 3
##   .metric .estimator .estimate
##   <chr>   <chr>          <dbl>
## 1 rmse    standard       4.90 
## 2 rsq     standard       0.792

rf_fit %>% 
  collect_predictions()
## # A tibble: 101 x 4
##    id               .pred  .row  medv
##    <chr>            <dbl> <int> <dbl>
##  1 train/test split  36.0     3  34.7
##  2 train/test split  36.0     4  33.4
##  3 train/test split  33.4     5  36.2
##  4 train/test split  21.0    16  19.9
##  5 train/test split  19.9    20  18.2
##  6 train/test split  15.4    24  14.5
##  7 train/test split  15.6    33  13.2
##  8 train/test split  14.7    35  13.5
##  9 train/test split  29.0    40  30.8
## 10 train/test split  18.1    49  14.4
## # … with 91 more rows
…
